<?xml version="1.0" encoding="UTF-8" standalone="no"?>
<!-- Created with Inkscape (http://www.inkscape.org/) -->

<svg
   xmlns:dc="http://purl.org/dc/elements/1.1/"
   xmlns:cc="http://creativecommons.org/ns#"
   xmlns:rdf="http://www.w3.org/1999/02/22-rdf-syntax-ns#"
   xmlns:svg="http://www.w3.org/2000/svg"
   xmlns="http://www.w3.org/2000/svg"
   xmlns:xlink="http://www.w3.org/1999/xlink"
   xmlns:sodipodi="http://sodipodi.sourceforge.net/DTD/sodipodi-0.dtd"
   xmlns:inkscape="http://www.inkscape.org/namespaces/inkscape"
   width="128"
   height="128"
   id="svg2"
   version="1.1"
   inkscape:version="0.48.0 r9654"
   sodipodi:docname="ar.svg">
  <defs
     id="defs4">
    <linearGradient
       id="linearGradient3851">
      <stop
         id="stop3853"
         offset="0"
         style="stop-color:#f4f4f4;stop-opacity:0" />
      <stop
         style="stop-color:#f0f0f0;stop-opacity:1;"
         offset="0.1762425"
         id="stop3855" />
      <stop
         style="stop-color:#ededed;stop-opacity:1"
         offset="0.8014437"
         id="stop3857" />
      <stop
         id="stop3859"
         offset="1"
         style="stop-color:#e6e6e6;stop-opacity:0;" />
    </linearGradient>
    <linearGradient
       id="linearGradient3835">
      <stop
         style="stop-color:#f4f4f4;stop-opacity:1"
         offset="0"
         id="stop3837" />
      <stop
         id="stop3849"
         offset="0.40072185"
         style="stop-color:#f0f0f0;stop-opacity:1;" />
      <stop
         id="stop3843"
         offset="0.8014437"
         style="stop-color:#ededed;stop-opacity:1" />
      <stop
         style="stop-color:#e6e6e6;stop-opacity:0;"
         offset="1"
         id="stop3839" />
    </linearGradient>
    <linearGradient
       id="linearGradient3793">
      <stop
         id="stop3795"
         offset="0"
         style="stop-color:#b5b5b5;stop-opacity:1" />
      <stop
         id="stop3797"
         offset="1"
         style="stop-color:#f5f5f5;stop-opacity:1" />
    </linearGradient>
    <linearGradient
       id="linearGradient3765">
      <stop
         style="stop-color:#cecece;stop-opacity:1"
         offset="0"
         id="stop3767" />
      <stop
         style="stop-color:#ffffff;stop-opacity:1"
         offset="1"
         id="stop3769" />
    </linearGradient>
    <linearGradient
       id="linearGradient3861">
      <stop
         id="stop3863"
         offset="0"
         style="stop-color:#6c6c6c;stop-opacity:1;" />
      <stop
         id="stop3865"
         offset="1"
         style="stop-color:#393939;stop-opacity:1;" />
    </linearGradient>
    <linearGradient
       id="linearGradient3755">
      <stop
         style="stop-color:#2b2b2b;stop-opacity:1;"
         offset="0"
         id="stop3757" />
      <stop
         style="stop-color:#0a0a0a;stop-opacity:1"
         offset="1"
         id="stop3759" />
    </linearGradient>
    <linearGradient
       inkscape:collect="always"
       xlink:href="#linearGradient3755"
       id="linearGradient3796"
       gradientUnits="userSpaceOnUse"
       x1="11.514"
       y1="21.114983"
       x2="11.649764"
       y2="2.2996519" />
    <linearGradient
       inkscape:collect="always"
       xlink:href="#linearGradient3861"
       id="linearGradient3859"
       gradientUnits="userSpaceOnUse"
       x1="11.514"
       y1="21.114983"
       x2="11.649764"
       y2="2.2996519"
       gradientTransform="matrix(1.3125413,0,0,1,-2.0759864,0.5017)" />
    <linearGradient
       inkscape:collect="always"
       xlink:href="#linearGradient3861"
       id="linearGradient3875"
       gradientUnits="userSpaceOnUse"
       gradientTransform="matrix(1.3125413,0,0,1,-2.0759864,1028.6865)"
       x1="11.514"
       y1="21.114983"
       x2="11.649764"
       y2="2.2996519" />
    <linearGradient
       inkscape:collect="always"
       xlink:href="#linearGradient3861"
       id="linearGradient3881"
       gradientUnits="userSpaceOnUse"
       gradientTransform="matrix(1.3125413,0,0,1,-2.0759864,1028.6865)"
       x1="11.514"
       y1="21.114983"
       x2="11.649764"
       y2="2.2996519" />
    <linearGradient
       inkscape:collect="always"
       xlink:href="#linearGradient3765"
       id="linearGradient3884"
       gradientUnits="userSpaceOnUse"
       gradientTransform="matrix(7.5004537,0,0,5.7144516,-21.65874,922.31362)"
       x1="11.514"
       y1="21.114983"
       x2="11.649764"
       y2="2.2996519" />
    <linearGradient
       inkscape:collect="always"
       xlink:href="#linearGradient3793"
       id="linearGradient3785"
       gradientUnits="userSpaceOnUse"
       gradientTransform="matrix(7.5004537,0,0,4.3068813,-21.65874,15.30288)"
       x1="11.514"
       y1="21.114983"
       x2="11.649764"
       y2="2.2996519" />
    <linearGradient
       inkscape:collect="always"
       xlink:href="#linearGradient3793-8"
       id="linearGradient3785-3"
       gradientUnits="userSpaceOnUse"
       gradientTransform="matrix(7.5004537,0,0,4.3068813,-21.65874,15.30288)"
       x1="11.514"
       y1="21.114983"
       x2="11.649764"
       y2="2.2996519" />
    <linearGradient
       id="linearGradient3793-8">
      <stop
         id="stop3795-0"
         offset="0"
         style="stop-color:#b5b5b5;stop-opacity:1" />
      <stop
         id="stop3797-5"
         offset="1"
         style="stop-color:#f5f5f5;stop-opacity:1" />
    </linearGradient>
  </defs>
  <sodipodi:namedview
     id="base"
     pagecolor="#ffffff"
     bordercolor="#666666"
     borderopacity="1.0"
     inkscape:pageopacity="0.0"
     inkscape:pageshadow="2"
     inkscape:zoom="2.9895833"
     inkscape:cx="74.932043"
     inkscape:cy="62.240919"
     inkscape:document-units="px"
     inkscape:current-layer="layer1"
     showgrid="false"
     inkscape:window-width="1224"
     inkscape:window-height="776"
     inkscape:window-x="56"
     inkscape:window-y="24"
     inkscape:window-maximized="1" />
  <metadata
     id="metadata7">
    <rdf:RDF>
      <cc:Work
         rdf:about="">
        <dc:format>image/svg+xml</dc:format>
        <dc:type
           rdf:resource="http://purl.org/dc/dcmitype/StillImage" />
        <dc:title></dc:title>
      </cc:Work>
    </rdf:RDF>
  </metadata>
  <g
     inkscape:label="Layer 1"
     inkscape:groupmode="layer"
     id="layer1"
     transform="translate(0,-924.3622)">
    <path
       style="fill:url(#linearGradient3785);fill-opacity:1;stroke:#262626;stroke-width:0;stroke-linecap:round;stroke-linejoin:miter;stroke-miterlimit:4;stroke-opacity:1;stroke-dasharray:none"
       d="M 9.09375 27.15625 C 5.587878 27.15625 2.84375 28.76778 2.84375 30.78125 L 2.84375 100.21875 C 2.84375 102.23165 5.587878 103.84375 9.09375 103.84375 L 119.75 103.84375 C 123.25587 103.84375 126.1875 102.23165 126.1875 100.21875 L 126.1875 30.78125 C 126.1875 28.76778 123.25587 27.15625 119.75 27.15625 L 9.09375 27.15625 z M 90.34375 39.5 C 90.751752 39.481995 91.148497 39.500006 91.5625 39.5 C 93.81847 39.50005 95.803218 39.6183 97.53125 39.90625 C 99.307214 40.1943 100.84572 40.55355 102.09375 40.9375 C 103.34171 41.32155 104.32571 41.7098 105.09375 42.09375 C 105.90971 42.4778 106.46196 42.74555 106.75 42.9375 L 104.53125 48.78125 C 103.13921 47.8693 101.27272 47.1073 98.96875 46.53125 C 96.664717 45.9073 94.337469 45.5938 91.9375 45.59375 C 89.393474 45.5938 87.049476 46.0568 84.9375 46.96875 C 82.87348 47.8808 81.112982 49.20955 79.625 50.9375 C 78.184985 52.66554 77.034736 54.78529 76.21875 57.28125 C 75.402738 59.72928 74.999988 62.49053 75 65.5625 C 74.999988 68.53853 75.327988 71.23952 76 73.6875 C 76.719987 76.1355 77.795486 78.25525 79.1875 80.03125 C 80.627483 81.75925 82.373481 83.1025 84.4375 84.0625 C 86.549477 85.0225 89.011724 85.5 91.84375 85.5 C 93.859719 85.5 95.576718 85.41075 96.96875 85.21875 C 98.408715 84.97875 99.438468 84.7545 100.0625 84.5625 L 100.0625 66 L 107.0625 66 L 107.0625 89.3125 C 106.48646 89.5045 105.63521 89.72875 104.53125 89.96875 C 103.47521 90.20875 102.22122 90.4475 100.78125 90.6875 C 99.389218 90.9275 97.867465 91.106 96.1875 91.25 C 94.507469 91.442 92.790471 91.53125 91.0625 91.53125 C 87.558476 91.53125 84.379979 90.9645 81.5 89.8125 C 78.619985 88.6605 76.126487 86.98925 74.0625 84.78125 C 71.998491 82.57325 70.401993 79.841 69.25 76.625 C 68.145995 73.40902 67.593746 69.73852 67.59375 65.5625 C 67.593746 61.38653 68.220745 57.68479 69.46875 54.46875 C 70.764743 51.20479 72.496241 48.45805 74.65625 46.25 C 76.816237 44.04205 79.338734 42.3708 82.21875 41.21875 C 84.780731 40.210794 87.487734 39.626033 90.34375 39.5 z M 36.4375 40.125 C 39.317477 40.12505 42.035225 40.3493 44.53125 40.78125 C 47.07522 41.2133 49.238468 41.9753 51.0625 43.03125 C 52.934464 44.0393 54.412712 45.38255 55.46875 47.0625 C 56.52471 48.74255 57.03121 50.80204 57.03125 53.25 C 57.03121 55.98604 56.38971 58.22404 55.09375 60 C 53.797713 61.72803 52.066215 63.04228 49.90625 63.90625 C 52.834214 64.77028 55.178212 66.12803 56.90625 68 C 58.634208 69.87202 59.499957 72.49827 59.5 75.90625 C 59.499957 80.89825 57.633459 84.67475 53.9375 87.21875 C 50.289466 89.71475 44.499222 90.96875 36.53125 90.96875 C 35.523231 90.96875 34.418732 90.95425 33.21875 90.90625 C 32.066735 90.85825 30.887486 90.7835 29.6875 90.6875 C 28.535488 90.5915 27.370739 90.4565 26.21875 90.3125 C 25.066742 90.1685 24.022493 89.99 23.0625 89.75 L 23.0625 41.375 C 24.022493 41.13505 25.066742 40.9253 26.21875 40.78125 C 27.370739 40.6373 28.535488 40.53355 29.6875 40.4375 C 30.887486 40.3415 32.066735 40.2668 33.21875 40.21875 C 34.370732 40.17075 35.429481 40.125 36.4375 40.125 z M 36.875 45.96875 C 35.098982 45.9688 33.726733 45.98335 32.71875 46.03125 C 31.710735 46.07925 30.784736 46.15405 29.96875 46.25 L 29.96875 61.65625 L 37.3125 61.65625 C 39.040478 61.65628 40.682726 61.55253 42.21875 61.3125 C 43.754723 61.07253 45.083472 60.62403 46.1875 60 C 47.339469 59.37603 48.219719 58.57054 48.84375 57.5625 C 49.515717 56.55454 49.843717 55.28604 49.84375 53.75 C 49.843717 52.31004 49.515717 51.11629 48.84375 50.15625 C 48.171719 49.1483 47.23122 48.3573 46.03125 47.78125 C 44.879222 47.1573 43.521473 46.6943 41.9375 46.40625 C 40.353476 46.1183 38.650978 45.9688 36.875 45.96875 z M 29.96875 67.28125 L 29.96875 84.84375 C 30.496736 84.89175 31.123736 84.952 31.84375 85 C 32.467734 85.048 33.183984 85.077 34 85.125 L 36.96875 85.125 C 39.032728 85.125 40.957226 85.02125 42.78125 84.78125 C 44.653222 84.49325 46.295471 84.01575 47.6875 83.34375 C 49.079468 82.67175 50.183967 81.73125 51 80.53125 C 51.863965 79.33125 52.281215 77.824 52.28125 76 C 52.281215 74.36802 51.967715 72.97902 51.34375 71.875 C 50.719716 70.72302 49.824967 69.82827 48.625 69.15625 C 47.472969 68.48428 46.069471 68.00678 44.4375 67.71875 C 42.805474 67.43078 40.984726 67.28128 38.96875 67.28125 L 29.96875 67.28125 z "
       transform="translate(0,924.3622)"
       id="rect3753" />
    <g
       style="font-size:40px;font-style:normal;font-weight:normal;line-height:125%;letter-spacing:0px;word-spacing:0px;fill:#000000;fill-opacity:1;stroke:none;font-family:Bitstream Vera Sans"
       id="text3763" />
    <g
       style="font-size:12px;font-style:normal;font-variant:normal;font-weight:normal;font-stretch:normal;line-height:125%;letter-spacing:0px;word-spacing:0px;fill:#000000;fill-opacity:1;stroke:none;font-family:Yanone Kaffeesatz;-inkscape-font-specification:Yanone Kaffeesatz"
       id="text3855" />
    <g
       style="font-size:48px;font-style:normal;font-variant:normal;font-weight:normal;font-stretch:normal;line-height:125%;letter-spacing:0px;word-spacing:0px;fill:#000000;fill-opacity:1;stroke:none;font-family:Ubuntu;-inkscape-font-specification:Ubuntu"
       id="text3771" />
    <g
       style="font-size:48px;font-style:normal;font-variant:normal;font-weight:normal;font-stretch:normal;line-height:125%;letter-spacing:0px;word-spacing:0px;fill:#000000;fill-opacity:1;stroke:none;font-family:Ubuntu;-inkscape-font-specification:Ubuntu"
       id="text3001" />
    <g
       style="font-size:48px;font-style:normal;font-variant:normal;font-weight:normal;font-stretch:normal;line-height:125%;letter-spacing:0px;word-spacing:0px;fill:#000000;fill-opacity:1;stroke:none;font-family:Ubuntu;-inkscape-font-specification:Ubuntu"
       id="text3861" />
  </g>
</svg>
